<?xml version="1.0" encoding="UTF-8"?>
<robot generator="Robot 4.1.1 (Python 3.10.0 on win32)" generated="20211019 20:17:23.875" rpa="false" schemaversion="2">
<suite id="s1" name="Checkbox" source="c:\robot\web\checkbox.robot">
<test id="s1-t1" name="Marcando a opção com o id">
<kw name="Open Browser" library="SeleniumLibrary">
<arg>${url}</arg>
<arg>chrome</arg>
<doc>Opens a new browser instance to the optional ``url``.</doc>
<msg timestamp="20211019 20:17:24.450" level="INFO">Opening browser 'chrome' to base url 'https://training-wheels-protocol.herokuapp.com'.</msg>
<status status="PASS" starttime="20211019 20:17:24.450" endtime="20211019 20:17:29.106"/>
</kw>
<kw name="Go To" library="SeleniumLibrary">
<arg>${url}/checkboxes</arg>
<doc>Navigates the current browser window to the provided ``url``.</doc>
<msg timestamp="20211019 20:17:29.108" level="INFO">Opening url 'https://training-wheels-protocol.herokuapp.com/checkboxes'</msg>
<status status="PASS" starttime="20211019 20:17:29.108" endtime="20211019 20:17:29.459"/>
</kw>
<kw name="Select Checkbox" library="SeleniumLibrary">
<arg>${check_thor}</arg>
<doc>Selects the checkbox identified by ``locator``.</doc>
<msg timestamp="20211019 20:17:29.461" level="INFO">Selecting checkbox 'id:thor'.</msg>
<status status="PASS" starttime="20211019 20:17:29.460" endtime="20211019 20:17:29.572"/>
</kw>
<kw name="Checkbox Should Be Selected" library="SeleniumLibrary">
<arg>${check_thor}</arg>
<doc>Verifies checkbox ``locator`` is selected/checked.</doc>
<msg timestamp="20211019 20:17:29.573" level="INFO">Verifying checkbox 'id:thor' is selected.</msg>
<status status="PASS" starttime="20211019 20:17:29.573" endtime="20211019 20:17:29.618"/>
</kw>
<kw name="Sleep" library="BuiltIn">
<arg>5</arg>
<doc>Pauses the test executed for the given time.</doc>
<msg timestamp="20211019 20:17:34.627" level="INFO">Slept 5 seconds</msg>
<status status="PASS" starttime="20211019 20:17:29.619" endtime="20211019 20:17:34.627"/>
</kw>
<kw name="Close Browser" library="SeleniumLibrary">
<doc>Closes the current browser.</doc>
<status status="PASS" starttime="20211019 20:17:34.628" endtime="20211019 20:17:36.811"/>
</kw>
<status status="PASS" starttime="20211019 20:17:24.449" endtime="20211019 20:17:36.812"/>
</test>
<status status="PASS" starttime="20211019 20:17:23.877" endtime="20211019 20:17:36.814"/>
</suite>
<statistics>
<total>
<stat pass="1" fail="0" skip="0">All Tests</stat>
</total>
<tag>
</tag>
<suite>
<stat pass="1" fail="0" skip="0" id="s1" name="Checkbox">Checkbox</stat>
</suite>
</statistics>
<errors>
</errors>
</robot>
